<?xml version="1.0" encoding="utf-8"?>

<!DOCTYPE svg PUBLIC "-//W3C//DTD SVG 1.1//EN" "http://www.w3.org/Graphics/SVG/1.1/DTD/svg11.dtd">
<svg version="1.1"
	 id="svg2" xmlns:dc="http://purl.org/dc/elements/1.1/" xmlns:cc="http://creativecommons.org/ns#" xmlns:rdf="http://www.w3.org/1999/02/22-rdf-syntax-ns#" xmlns:svg="http://www.w3.org/2000/svg" xmlns:sodipodi="http://sodipodi.sourceforge.net/DTD/sodipodi-0.dtd" xmlns:inkscape="http://www.inkscape.org/namespaces/inkscape" sodipodi:docname="compass.svg" inkscape:version="0.48.4 r9939"
	 xmlns="http://www.w3.org/2000/svg" xmlns:xlink="http://www.w3.org/1999/xlink" x="0px" y="0px" width="1200px" height="1200px"
	 viewBox="0 0 1200 1200" enable-background="new 0 0 1200 1200" xml:space="preserve">
<sodipodi:namedview  inkscape:cy="609.17298" inkscape:cx="847.24455" inkscape:zoom="0.37249375" showgrid="false" id="namedview30" guidetolerance="10" gridtolerance="10" objecttolerance="10" borderopacity="1" bordercolor="#666666" pagecolor="#ffffff" inkscape:current-layer="svg2" inkscape:window-maximized="1" inkscape:window-y="24" inkscape:window-height="876" inkscape:window-width="1535" inkscape:pageshadow="2" inkscape:pageopacity="0" inkscape:window-x="65">
	</sodipodi:namedview>
<path id="path4896" inkscape:connector-curvature="0" d="M175.736,1024.264c234.315,234.314,614.213,234.314,848.527,0
	s234.314-614.212,0-848.527c-234.314-234.314-614.212-234.314-848.527,0C-58.578,410.051-58.578,789.949,175.736,1024.264
	L175.736,1024.264z M234.311,965.689c-201.966-201.966-201.966-529.412,0-731.378c201.966-201.966,529.412-201.966,731.378,0
	c201.967,201.967,201.967,529.413,0,731.378C763.724,1167.656,436.278,1167.656,234.311,965.689L234.311,965.689z M292.833,934.408
	l398.11-243.465l243.465-398.109l-27.241-27.242l-398.11,243.465l-243.465,398.11L292.833,934.408L292.833,934.408z"/>
</svg>
