<?xml version="1.0" encoding="utf-8"?>

<!DOCTYPE svg PUBLIC "-//W3C//DTD SVG 1.1//EN" "http://www.w3.org/Graphics/SVG/1.1/DTD/svg11.dtd">
<svg version="1.1"
	 id="svg2" xmlns:dc="http://purl.org/dc/elements/1.1/" xmlns:cc="http://creativecommons.org/ns#" xmlns:rdf="http://www.w3.org/1999/02/22-rdf-syntax-ns#" xmlns:svg="http://www.w3.org/2000/svg" xmlns:sodipodi="http://sodipodi.sourceforge.net/DTD/sodipodi-0.dtd" xmlns:inkscape="http://www.inkscape.org/namespaces/inkscape" sodipodi:docname="fork.svg" inkscape:version="0.48.4 r9939"
	 xmlns="http://www.w3.org/2000/svg" xmlns:xlink="http://www.w3.org/1999/xlink" x="0px" y="0px" width="1200px" height="1200px"
	 viewBox="0 0 1200 1200" enable-background="new 0 0 1200 1200" xml:space="preserve">
<path id="path9123" inkscape:connector-curvature="0" d="M42.203,935.926h186.061V763.958c0-54.408,26.559-114.484,77.32-164.729
	c50.762-50.242,126.065-104.842,249.904-191.527c124.394-87.076,199.565-135.567,233.346-165.807
	c33.78-30.24,30.882-25.376,30.882-69.388V2.08V0h147.863v2.08v170.427c0,66.078-27.619,132.54-80.093,179.516
	c-52.475,46.975-125.164,91.312-247.208,176.741c-122.601,85.82-195.159,140.381-230.651,175.512
	c-35.491,35.129-33.5,36.641-33.5,59.685v171.967h194.147L306.276,1200L42.203,935.926z M629.727,935.926h189.988V763.958
	c0-23.043,1.914-24.554-33.577-59.684c-23.477-23.237-65.093-56.146-124.76-99.809c7.49-5.281,13.418-9.555,21.333-15.095
	c43.674-30.571,75.183-51.648,107.816-73.777c41.578,31.395,73.875,58.12,99.652,83.637
	c50.763,50.242,77.397,110.319,77.397,164.729v171.968h190.22L893.801,1200L629.727,935.926z"/>
</svg>
