<?xml version="1.0" encoding="utf-8"?>

<!DOCTYPE svg PUBLIC "-//W3C//DTD SVG 1.1//EN" "http://www.w3.org/Graphics/SVG/1.1/DTD/svg11.dtd">
<svg version="1.1"
	 id="svg2" xmlns:dc="http://purl.org/dc/elements/1.1/" xmlns:cc="http://creativecommons.org/ns#" xmlns:rdf="http://www.w3.org/1999/02/22-rdf-syntax-ns#" xmlns:svg="http://www.w3.org/2000/svg" xmlns:sodipodi="http://sodipodi.sourceforge.net/DTD/sodipodi-0.dtd" xmlns:inkscape="http://www.inkscape.org/namespaces/inkscape" sodipodi:docname="lock.svg" inkscape:version="0.48.4 r9939"
	 xmlns="http://www.w3.org/2000/svg" xmlns:xlink="http://www.w3.org/1999/xlink" x="0px" y="0px" width="1200px" height="1200px"
	 viewBox="0 0 1200 1200" enable-background="new 0 0 1200 1200" xml:space="preserve">
<path id="path13748" inkscape:connector-curvature="0" d="M592.09,0.004C442.66-0.708,311.458,88.89,248.073,228.885
	c-32.601,77.731-30.662,184.188-29.15,277.147H52.297V1200h1095.406V506.032h-181.2V374.417c0-51.599-10.623-99.226-30.469-145.532
	C878.015,95.938,741.52,0.716,592.09,0.004z M592.09,220.975c87.291,2.317,150.961,67.954,154.76,152.124v1.318v131.615H438.575
	V374.417C446.814,282.793,504.798,218.658,592.09,220.975L592.09,220.975z"/>
</svg>
