<?xml version="1.0" encoding="utf-8"?>

<!DOCTYPE svg PUBLIC "-//W3C//DTD SVG 1.1//EN" "http://www.w3.org/Graphics/SVG/1.1/DTD/svg11.dtd">
<svg version="1.1"
	 id="svg2" xmlns:dc="http://purl.org/dc/elements/1.1/" xmlns:cc="http://creativecommons.org/ns#" xmlns:rdf="http://www.w3.org/1999/02/22-rdf-syntax-ns#" xmlns:svg="http://www.w3.org/2000/svg" xmlns:sodipodi="http://sodipodi.sourceforge.net/DTD/sodipodi-0.dtd" xmlns:inkscape="http://www.inkscape.org/namespaces/inkscape" sodipodi:docname="headphones.svg" inkscape:version="0.48.4 r9939"
	 xmlns="http://www.w3.org/2000/svg" xmlns:xlink="http://www.w3.org/1999/xlink" x="0px" y="0px" width="1200px" height="1200px"
	 viewBox="0 0 1200 1200" enable-background="new 0 0 1200 1200" xml:space="preserve">
<sodipodi:namedview  inkscape:cy="438.51537" inkscape:cx="59.081632" inkscape:zoom="0.37249375" showgrid="false" id="namedview30" guidetolerance="10" gridtolerance="10" objecttolerance="10" borderopacity="1" bordercolor="#666666" pagecolor="#ffffff" inkscape:current-layer="svg2" inkscape:window-maximized="1" inkscape:window-y="24" inkscape:window-height="876" inkscape:window-width="1535" inkscape:pageshadow="2" inkscape:pageopacity="0" inkscape:window-x="65">
	</sodipodi:namedview>
<path id="path11423" inkscape:connector-curvature="0" d="M1050,937.5c0-100,0-200,0-300c0-248.513-201.487-450-450-450
	s-450,201.487-450,450c0,100,0,200,0,300c-11.048,106.906-147.598,78.946-150,0c0-100,0-200,0-300c0-331.388,268.65-600,600-600
	c331.35,0,600,268.612,600,600c0,100,0,200,0,300C1188.952,1044.406,1052.402,1016.446,1050,937.5L1050,937.5z M262.5,712.5h75
	c20.7,0,37.5,16.763,37.5,37.5v375c0,20.737-16.8,37.5-37.5,37.5h-75c-20.7,0-37.5-16.763-37.5-37.5V750
	C225,729.263,241.8,712.5,262.5,712.5L262.5,712.5z M862.5,712.5h75c20.737,0,37.5,16.763,37.5,37.5v375
	c0,20.737-16.763,37.5-37.5,37.5h-75c-20.737,0-37.5-16.763-37.5-37.5V750C825,729.263,841.763,712.5,862.5,712.5L862.5,712.5z"/>
</svg>
