<?xml version="1.0" encoding="utf-8"?>

<!DOCTYPE svg PUBLIC "-//W3C//DTD SVG 1.1//EN" "http://www.w3.org/Graphics/SVG/1.1/DTD/svg11.dtd">
<svg version="1.1"
	 id="svg2" xmlns:dc="http://purl.org/dc/elements/1.1/" xmlns:cc="http://creativecommons.org/ns#" xmlns:rdf="http://www.w3.org/1999/02/22-rdf-syntax-ns#" xmlns:svg="http://www.w3.org/2000/svg" xmlns:sodipodi="http://sodipodi.sourceforge.net/DTD/sodipodi-0.dtd" xmlns:inkscape="http://www.inkscape.org/namespaces/inkscape" sodipodi:docname="hearing-impaired.svg" inkscape:version="0.48.4 r9939"
	 xmlns="http://www.w3.org/2000/svg" xmlns:xlink="http://www.w3.org/1999/xlink" x="0px" y="0px" width="1200px" height="1200px"
	 viewBox="0 0 1200 1200" enable-background="new 0 0 1200 1200" xml:space="preserve">
<sodipodi:namedview  inkscape:cy="620.25932" inkscape:cx="1.6814613" inkscape:zoom="0.37249375" showgrid="false" id="namedview30" guidetolerance="10" gridtolerance="10" objecttolerance="10" borderopacity="1" bordercolor="#666666" pagecolor="#ffffff" inkscape:current-layer="svg2" inkscape:window-maximized="1" inkscape:window-y="24" inkscape:window-height="876" inkscape:window-width="1535" inkscape:pageshadow="2" inkscape:pageopacity="0" inkscape:window-x="65">
	</sodipodi:namedview>
<path id="path11502" inkscape:connector-curvature="0" d="M1159.825,18.085c26.211,30.386,25.351,69.361,0,95.401L995.523,279.114
	c-30.122,26.332-68.203,25.187-94.076,0c-25.703-29.557-25.893-70.498,0-95.401l164.302-165.627
	C1094.402-6.243,1135.214-5.813,1159.825,18.085L1159.825,18.085z M339.64,749.494c28.655-24.326,69.464-23.899,94.077,0
	c25.217,28.723,26.389,71.743,0,95.401l-299.454,302.104c-30.122,26.332-68.204,25.188-94.077,0
	c-25.703-29.558-25.892-70.496,0-95.401L339.64,749.494z M628.494,529.542c-2.398-48.684-41.57-84.218-84.802-84.802
	c-48.011,2.651-84.196,41.673-84.801,84.802c-2.052,30.882-22.076,51.302-50.351,51.676c-31.261-2.296-50.003-23.781-50.351-51.676
	c1.746-51.925,20.345-98.006,54.326-132.502c37.862-35.457,83.352-53.979,131.177-54.326c51.85,1.685,96.85,20.496,131.176,54.326
	c35.505,38.095,53.978,84.438,54.326,132.502c-2.052,30.882-22.076,51.302-50.351,51.676
	C647.583,578.922,628.841,557.437,628.494,529.542L628.494,529.542z M543.692,146.612c101.718,2.181,195.905,42.973,262.354,109.313
	c69.994,74.183,107.973,170.781,108.651,264.341c-2.101,85.07-17.161,125.399-56.976,190.803
	c-21.731,51.807-71.849,90.229-98.714,137.139c-15.229,48.481-4.017,101.299-5.963,155.027
	c-0.726,59.921-24.187,126.913-65.588,159.664c-46.38,27.034-94.792,37.101-137.14,37.101
	c-35.225-2.742-57.584-28.229-59.625-59.626c-1.146-16.341,5.282-31.612,15.899-42.4c26.689-27.214,52.868-16.911,85.464-25.175
	c11.771-3.74,28.769-8.201,33.126-20.538c7.502-23.134,7.261-51.45,7.287-70.889c2.199-49.368-7.059-94.804,3.312-141.114
	c7.11-29.836,18.804-58.064,36.438-80.826c11.915-15.676,25.548-29.46,35.775-43.063c14.716-18.206,26.64-37.903,38.426-56.312
	c12.715-19.453,22.673-38.744,34.45-57.639c9.455-27.191,13.176-55.696,13.25-82.151c-2.398-69.875-27.811-131.796-73.538-178.214
	c-50.965-47.665-112.463-73.065-176.89-73.539c-69.802,2.337-130.642,27.961-176.89,73.539
	c-47.712,51.196-73.063,113.548-73.539,178.214c-2.56,35.69-26.989,60.506-59.625,60.951c-35.86-2.689-60.506-28.345-60.951-60.951
	c2.316-102.082,42.857-196.705,108.651-264.34C354.35,185.093,450.605,147.287,543.692,146.612L543.692,146.612z"/>
</svg>
