<?xml version="1.0" encoding="utf-8"?>

<!DOCTYPE svg PUBLIC "-//W3C//DTD SVG 1.1//EN" "http://www.w3.org/Graphics/SVG/1.1/DTD/svg11.dtd">
<svg version="1.1"
	 id="svg2" xmlns:dc="http://purl.org/dc/elements/1.1/" xmlns:cc="http://creativecommons.org/ns#" xmlns:rdf="http://www.w3.org/1999/02/22-rdf-syntax-ns#" xmlns:svg="http://www.w3.org/2000/svg" xmlns:sodipodi="http://sodipodi.sourceforge.net/DTD/sodipodi-0.dtd" xmlns:inkscape="http://www.inkscape.org/namespaces/inkscape" sodipodi:docname="music.svg" inkscape:version="0.48.4 r9939"
	 xmlns="http://www.w3.org/2000/svg" xmlns:xlink="http://www.w3.org/1999/xlink" x="0px" y="0px" width="1200px" height="1200px"
	 viewBox="0 0 1200 1200" enable-background="new 0 0 1200 1200" xml:space="preserve">
<path id="path14742" inkscape:connector-curvature="0" d="M364.798,80.329l-30.419,790.778
	c-40.935-21.007-92.292-30.096-146.179-22.449C72.007,865.114-11.66,952.766,1.33,1044.407
	c12.992,91.647,117.714,152.585,233.902,136.124c103.119-14.613,180.524-85.303,187.557-165.075l0.022,0.045
	c0.016-0.181,0.026-0.452,0.042-0.656c0.173-2.026,0.271-4.08,0.346-6.119c4.327-82.368,30.815-708.026,30.815-708.026
	l652.416-67.219l-29.467,563.479c-41.867-23.303-95.68-33.684-152.264-25.665c-116.192,16.473-199.854,104.105-186.863,195.759
	c12.986,91.639,117.709,152.587,233.901,136.107c105.313-14.906,183.777-88.319,187.895-170.171l0.05-0.05
	C1161.89,896.157,1198.7,46.799,1200,16.784L364.798,80.329z"/>
</svg>
